<svg xmlns="http://www.w3.org/2000/svg" width="156" height="53" viewBox="0 0 156 53">
    <defs>
        <linearGradient id="a" x1="98.031%" x2="58.888%" y1=".161%" y2="40.766%">
            <stop offset="18%" stop-color="#FFF" stop-opacity=".4"/>
            <stop offset="100%" stop-color="#FFF"/>
        </linearGradient>
        <linearGradient id="b" x1="3739.421%" x2="2058.278%" y1="3562%" y2="5216%">
            <stop offset="18%" stop-color="#FFF" stop-opacity=".4"/>
            <stop offset="100%" stop-color="#FFF"/>
        </linearGradient>
    </defs>
    <g fill="none" fill-rule="nonzero">
        <path fill="#FFF" d="M50.845 0H26c0 2.992 1.181 5.861 3.284 7.977a11.178 11.178 0 0 0 7.928 3.304h4.576v4.445C41.792 21.954 46.81 27 53 27V2.168A2.161 2.161 0 0 0 50.845 0z"/>
        <path fill="url(#a)" d="M37.845 13H13c.004 6.225 5.02 11.27 11.208 11.274h4.577v4.445c0 2.992 1.181 5.861 3.285 7.977A11.182 11.182 0 0 0 40 40V15.168A2.162 2.162 0 0 0 37.845 13z"/>
        <path fill="url(#b)" d="M24.845 26H0c.004 6.228 5.024 11.274 11.215 11.274h4.591v4.445C15.806 47.94 20.814 52.988 27 53V28.168A2.162 2.162 0 0 0 24.845 26z"/>
        <path fill="#FFF" d="M79.258 5H85v29.01c0 7.685-3.344 12.988-11.182 12.988A20.1 20.1 0 0 1 67 45.915V40.36a15.859 15.859 0 0 0 5.87 1.082c4.802 0 6.46-2.886 6.46-7.049L79.258 5zM97 3.01a3.731 3.731 0 0 1 2.906 1.085 3.74 3.74 0 0 1 1.084 2.91A3.993 3.993 0 0 1 97 11a3.993 3.993 0 0 1-3.99-3.995 3.74 3.74 0 0 1 1.084-2.91A3.731 3.731 0 0 1 97 3.01zM94 15h6v32h-6V15zM108 15.48h5.47v5.54c1.887-3.715 5.18-6.363 11.53-5.984v5.29c-7.164-.715-11.53 1.39-11.53 8.061V47H108V15.48zM150.511 41.654C148.47 45.844 144.646 48 139.744 48 131.272 48 127 40.832 127 31.5c0-8.95 4.46-16.5 13.381-16.5 4.649 0 8.219 2.091 10.138 6.216v-5.581H156v31.73h-5.489v-5.711zM140.726 43c4.893 0 9.274-3.13 9.274-10.222v-2.556C150 23.13 146.002 20 141.34 20c-6.164 0-9.34 4.087-9.34 11.5 0 7.667 3.046 11.5 8.704 11.5h.022z"/>
    </g>
</svg>
