<?xml version="1.0" encoding="UTF-8"?>
<svg width="19px" height="29px" viewBox="0 0 19 29" version="1.1" xmlns="http://www.w3.org/2000/svg" xmlns:xlink="http://www.w3.org/1999/xlink">
    <!-- Generator: Sketch 52.5 (67469) - http://www.bohemiancoding.com/sketch -->
    <title>intg_logic_icon</title>
    <desc>Created with Sketch.</desc>
    <g id="Symbols" stroke="none" stroke-width="1" fill="none" fill-rule="evenodd">
        <g id="icon/condition" transform="translate(-11.000000, -5.000000)">
            <g id="intg_logic_icon" transform="translate(12.000000, 5.000000)">
                <path d="M4,8 L10,8 C12.7614237,8 15,10.2385763 15,13 L15,26 L13,26 L13,13 C13,11.3431458 11.6568542,10 10,10 L4,10 L4,18 C4,18.5522847 3.55228475,19 3,19 C2.44771525,19 2,18.5522847 2,18 L2,1 C2,0.44771525 2.44771525,-3.45126062e-15 3,-3.55271368e-15 C3.55228475,-3.65416674e-15 4,0.44771525 4,1 L4,8 Z" id="Combined-Shape" fill="#6CC04A"></path>
                <circle id="Oval" stroke="#696969" stroke-width="2" fill="#E9E9E9" cx="14" cy="25" r="3"></circle>
                <circle id="Oval" stroke="#6CC04A" stroke-width="2" fill="#E9E9E9" cx="3" cy="19" r="3"></circle>
            </g>
        </g>
    </g>
</svg>