<svg xmlns="http://www.w3.org/2000/svg" width="150" height="43" viewBox="0 0 150 43">
    <g fill="none" fill-rule="nonzero">
        <path fill="#ECB32D" d="M26.6 4.7a3.653 3.653 0 0 0-4.567-2.333A3.653 3.653 0 0 0 19.7 6.933l9.367 28.8c.633 1.767 2.566 2.767 4.4 2.234 1.933-.567 3.1-2.6 2.466-4.467 0-.067-9.333-28.8-9.333-28.8z"/>
        <path fill="#63C1A0" d="M12.1 9.4a3.653 3.653 0 0 0-4.567-2.333A3.653 3.653 0 0 0 5.2 11.633l9.367 28.8c.633 1.767 2.566 2.767 4.4 2.234 1.933-.567 3.1-2.6 2.466-4.467 0-.067-9.333-28.8-9.333-28.8z"/>
        <path fill="#E01A59" d="M38.4 28.533a3.653 3.653 0 0 0 2.333-4.566 3.653 3.653 0 0 0-4.566-2.334l-28.834 9.4c-1.766.634-2.766 2.567-2.233 4.4.567 1.934 2.6 3.1 4.467 2.467.066 0 28.833-9.367 28.833-9.367z"/>
        <path fill="#331433" d="M13.333 36.7c1.867-.6 4.3-1.4 6.9-2.233-.6-1.867-1.4-4.3-2.233-6.9L11.1 29.8l2.233 6.9z"/>
        <path fill="#D62027" d="M27.867 31.967c2.6-.834 5.033-1.634 6.9-2.234-.6-1.866-1.4-4.3-2.234-6.9l-6.9 2.234 2.234 6.9z"/>
        <path fill="#89D3DF" d="M33.667 14.033A3.653 3.653 0 0 0 36 9.467a3.653 3.653 0 0 0-4.567-2.334L2.633 16.5C.867 17.133-.133 19.067.4 20.9.967 22.833 3 24 4.867 23.367c.066 0 28.8-9.334 28.8-9.334z"/>
        <path fill="#258B74" d="M8.633 22.167c1.867-.6 4.3-1.4 6.9-2.234-.833-2.6-1.633-5.033-2.233-6.9l-6.9 2.234 2.233 6.9z"/>
        <path fill="#819C3C" d="M23.133 17.467c2.6-.834 5.034-1.634 6.9-2.234-.833-2.6-1.633-5.033-2.233-6.9l-6.9 2.234 2.233 6.9z"/>
        <path fill="#2D333A" d="M68.427 11.696c1.245.576 1.344.983.36 2.915-1.015 1.966-1.244 2.102-2.49 1.593-1.54-.678-3.538-1.186-4.816-1.186-2.096 0-3.472.78-3.472 1.966C58.009 20.882 70 18.78 70 27.05 70 31.221 66.527 34 61.35 34c-2.719 0-6.094-.95-8.42-2.17-1.147-.61-1.245-.948-.23-2.948.853-1.73 1.148-1.933 2.393-1.39 1.965.881 4.488 1.593 6.16 1.593 1.9 0 3.177-.814 3.177-1.966 0-3.763-12.22-1.966-12.22-10 0-4.27 3.44-7.118 8.583-7.118 2.49-.034 5.537.712 7.634 1.695zM80 1.638v30.428c0 .467-.542.934-1.265.934h-3.47c-.759 0-1.265-.5-1.265-.934V1.638c0-1.501.47-1.635 3-1.635 2.892-.033 3 .167 3 1.635zM103 19.254v13.322c0 .712-.523 1.187-1.22 1.187h-3.315c-.767 0-1.29-.543-1.22-1.288l.034-1.424C95.5 32.983 92.92 34 90.337 34 85.35 34 82 31.186 82 27.017c0-4.44 3.767-7.458 9.453-7.458 2.163 0 4.117.373 5.721 1.017v-1.525c0-2.44-1.988-3.898-5.372-3.898-1.57 0-3.523.61-5.058 1.491-1.186.644-1.465.61-2.756-1.254-1.255-1.865-1.22-2.204 0-2.983C86.326 10.949 89.465 10 92.36 10c6.524 0 10.64 3.424 10.64 9.254zm-15.419 7.73c0 1.592 1.396 2.643 3.454 2.643 2.512 0 4.814-1.186 6.14-3.186v-2.068c-1.326-.509-2.966-.78-4.396-.78-3.14 0-5.198 1.424-5.198 3.39zM124.783 11.76c1.212.677 1.247 1.05-.07 3.047-1.247 1.895-1.455 1.997-2.806 1.354-1.005-.508-2.633-.948-3.95-.948-4.157 0-6.929 2.674-6.929 6.736 0 4.198 2.772 7.041 6.93 7.041 1.455 0 3.256-.541 4.434-1.185 1.213-.677 1.455-.643 2.737 1.185 1.143 1.693 1.143 2.099.104 2.81-1.87 1.252-4.781 2.2-7.38 2.2C110.163 34 105 29.193 105 21.95c0-7.177 5.162-11.95 12.923-11.95 2.356 0 5.127.779 6.86 1.76zM149.5 29.982c.982 1.162.596 1.593-1.859 2.423-2.49.864-2.841.797-3.718-.265l-6.98-8.799-3.12 2.855v5.711c0 .465-.527.93-1.228.93h-3.367c-.737 0-1.228-.498-1.228-.93V1.627C128 .133 128.456 0 130.911 0c2.841 0 2.911.2 2.911 1.627v17.199l9.54-8.666c1.052-.93 1.648-.863 3.507.299 2.07 1.261 2.21 1.627 1.228 2.523l-7.085 6.574 8.488 10.426z"/>
    </g>
</svg>
