<?xml version="1.0" encoding="UTF-8"?>
<svg width="120px" height="75px" viewBox="0 0 120 75" version="1.1" xmlns="http://www.w3.org/2000/svg" xmlns:xlink="http://www.w3.org/1999/xlink">
    <!-- Generator: Sketch 48.2 (47327) - http://www.bohemiancoding.com/sketch -->
    <title>wordpress-logo</title>
    <desc>Created with Sketch.</desc>
    <defs></defs>
    <g id="01_marketplace_02" stroke="none" stroke-width="1" fill="none" fill-rule="evenodd" transform="translate(-1170.000000, -949.000000)">
        <g id="Stacked-Group" transform="translate(265.000000, 179.000000)" fill="#FFFFFF">
            <g transform="translate(0.000000, 750.000000)" id="WordPress-Tile">
                <g>
                    <g transform="translate(840.000000, 0.000000)">
                        <g id="tiel/jira">
                            <g id="wordpress-logo" transform="translate(65.000000, 20.000000)">
                                <path d="M54.3222178,73.3101786 L54.0810297,73.3101786 C52.8412277,73.3101786 52.6689505,73.0000595 52.6689505,71.4125595 L52.6689505,63.923869 L54.3222178,63.923869 C57.903802,63.923869 58.5584554,66.5464881 58.5584554,68.5827976 C58.5584554,70.6875595 57.903802,73.3101786 54.3222178,73.3101786 Z M39.7879604,68.5131548 L39.7879604,63.923869 L41.2000396,63.923869 C42.7499406,63.923869 43.4390495,64.9935119 43.4390495,66.2351786 C43.4390495,67.4441071 42.7499406,68.5131548 41.2000396,68.5131548 L39.7879604,68.5131548 Z M54.2188515,62.8881548 L48.053703,62.8881548 L48.053703,63.5441071 C49.9820198,63.5441071 50.2921188,63.9577976 50.2921188,66.4083929 L50.2921188,70.8256548 C50.2921188,73.2756548 49.9820198,73.7244643 48.053703,73.7244643 C46.5733069,73.5179167 45.574099,72.723869 44.1964752,71.2054167 L42.6121188,69.4798214 C44.7477624,69.1000595 45.884198,67.7542262 45.884198,66.2351786 C45.884198,64.3381548 44.2653861,62.8881548 41.234495,62.8881548 L35.1733069,62.8881548 L35.1733069,63.5441071 C37.1016238,63.5441071 37.4111287,63.9577976 37.4111287,66.4083929 L37.4111287,70.8256548 C37.4111287,73.2756548 37.1016238,73.7244643 35.1733069,73.7244643 L35.1733069,74.3798214 L42.0269703,74.3798214 L42.0269703,73.7244643 C40.0980594,73.7244643 39.7879604,73.2756548 39.7879604,70.8256548 L39.7879604,69.5833929 L40.373703,69.5833929 L44.1964752,74.3798214 L54.2188515,74.3798214 C59.144198,74.3798214 61.2792475,71.7577976 61.2792475,68.6167262 C61.2792475,65.4768452 59.144198,62.8881548 54.2188515,62.8881548 Z" id="Fill-1"></path>
                                <path d="M15.989703,69.7904762 L18.3659406,62.75 C19.0550495,60.7142857 18.7455446,60.1279762 16.5409901,60.1279762 L16.5409901,59.4369048 L23.0162376,59.4369048 L23.0162376,60.1279762 C20.8461386,60.1279762 20.329901,60.6452381 19.4685149,63.1642857 L15.5417822,74.9666667 L15.0944554,74.9666667 L11.5811881,64.164881 L7.99960396,74.9666667 L7.55168317,74.9666667 L3.72891089,63.1642857 C2.9019802,60.6452381 2.35128713,60.1279762 0.353465347,60.1279762 L0.353465347,59.4369048 L7.99960396,59.4369048 L7.99960396,60.1279762 C5.96732673,60.1279762 5.4160396,60.6107143 6.13960396,62.75 L8.44693069,69.7904762 L11.9257426,59.4369048 L12.580396,59.4369048 L15.989703,69.7904762 Z" id="Fill-3"></path>
                                <path d="M27.6992079,63.5097024 C24.5310891,63.5097024 23.4285149,66.3739881 23.4285149,68.6168452 C23.4285149,70.8948214 24.5310891,73.7245833 27.6992079,73.7245833 C30.9023762,73.7245833 32.0043564,70.8948214 32.0043564,68.6168452 C32.0043564,66.3739881 30.9023762,63.5097024 27.6992079,63.5097024 M27.6992079,74.82875 C23.9108911,74.82875 20.8110891,72.0335119 20.8110891,68.6168452 C20.8110891,65.2347024 23.9108911,62.4394643 27.6992079,62.4394643 C31.4875248,62.4394643 34.5879208,65.2347024 34.5879208,68.6168452 C34.5879208,72.0335119 31.4875248,74.82875 27.6992079,74.82875" id="Fill-5"></path>
                                <path d="M69.028099,60.6794048 L67.0647327,60.6794048 L67.0647327,66.6841667 L69.028099,66.6841667 C70.9570099,66.6841667 71.8522574,65.3383333 71.8522574,63.7175 C71.8522574,62.0603571 70.9570099,60.6794048 69.028099,60.6794048 M69.7855248,73.6895238 L69.7855248,74.38 L61.8987921,74.38 L61.8987921,73.6895238 C64.2067129,73.6895238 64.6195842,73.1032143 64.6195842,69.6520238 L64.6195842,64.1311905 C64.6195842,60.6794048 64.2067129,60.127619 61.8987921,60.127619 L61.8987921,59.4371429 L69.028099,59.4371429 C72.5758218,59.4371429 74.5385941,61.2663095 74.5385941,63.7175 C74.5385941,66.0984524 72.5758218,67.9615476 69.028099,67.9615476 L67.0647327,67.9615476 L67.0647327,69.6520238 C67.0647327,73.1032143 67.478198,73.6895238 69.7855248,73.6895238" id="Fill-7"></path>
                                <path d="M79.9462574,68.5133929 L79.9462574,63.9241071 L81.3583366,63.9241071 C82.9076436,63.9241071 83.5973465,64.99375 83.5973465,66.2354167 C83.5973465,67.44375 82.9076436,68.5133929 81.3583366,68.5133929 L79.9462574,68.5133929 Z M98.1993267,71.1360119 L98.0276436,71.7574405 C97.7175446,72.896131 97.3379406,73.3104167 94.8927921,73.3104167 L94.4110099,73.3104167 C92.6199208,73.3104167 92.3104158,72.896131 92.3104158,70.446131 L92.3104158,68.858631 C94.9961584,68.858631 95.2034851,69.0997024 95.2034851,70.8949405 L95.8575446,70.8949405 L95.8575446,65.7526786 L95.2034851,65.7526786 C95.2034851,67.5473214 94.9961584,67.7883929 92.3104158,67.7883929 L92.3104158,63.9241071 L94.2042772,63.9241071 C96.6494257,63.9241071 97.0284356,64.3377976 97.3379406,65.4764881 L97.5102178,66.1318452 L98.061505,66.1318452 L97.8209109,62.8883929 L87.6945743,62.8883929 L87.6945743,63.54375 C89.6234851,63.54375 89.9335842,63.9580357 89.9335842,66.408631 L89.9335842,70.8258929 C89.9335842,73.0669643 89.6698218,73.6318452 88.1496238,73.7122024 C86.7042772,73.4907738 85.711604,72.7008929 84.3541782,71.2050595 L82.7698218,69.4800595 C84.9054653,69.0997024 86.042495,67.7544643 86.042495,66.2354167 C86.042495,64.3377976 84.4236832,62.8883929 81.3927921,62.8883929 L75.3304158,62.8883929 L75.3304158,63.54375 C77.2599208,63.54375 77.5694257,63.9580357 77.5694257,66.408631 L77.5694257,70.8258929 C77.5694257,73.2758929 77.2599208,73.7247024 75.3304158,73.7247024 L75.3304158,74.3794643 L82.1846733,74.3794643 L82.1846733,73.7247024 C80.2557624,73.7247024 79.9462574,73.2758929 79.9462574,70.8258929 L79.9462574,69.583631 L80.5314059,69.583631 L84.3541782,74.3794643 L98.5094257,74.3794643 L98.7161584,71.1360119 L98.1993267,71.1360119 Z" id="Fill-9"></path>
                                <path d="M105.190871,74.8285119 C103.813248,74.8285119 102.607307,74.1041071 102.091069,73.6552976 C101.918792,73.8279167 101.609287,74.3451786 101.539782,74.8285119 L100.885723,74.8285119 L100.885723,70.0666071 L101.574238,70.0666071 C101.849881,72.3439881 103.434238,73.6898214 105.466515,73.6898214 C106.567901,73.6898214 107.463743,73.0689881 107.463743,72.033869 C107.463743,71.13625 106.671267,70.446369 105.259782,69.7904167 L103.29701,68.858869 C101.918792,68.2023214 100.885723,67.0642262 100.885723,65.5457738 C100.885723,63.8892262 102.43503,62.4743452 104.571267,62.4743452 C105.707703,62.4743452 106.671267,62.8880357 107.257604,63.3719643 C107.429881,63.233869 107.601564,62.8535119 107.704931,62.4398214 L108.359584,62.4398214 L108.359584,66.5118452 L107.63602,66.5118452 C107.394832,64.8898214 106.499584,63.5439881 104.674634,63.5439881 C103.709881,63.5439881 102.81404,64.096369 102.81404,64.958869 C102.81404,65.8564881 103.537604,66.338631 105.190871,67.09875 L107.084733,68.0302976 C108.738594,68.82375 109.392653,70.101131 109.392653,71.13625 C109.392653,73.3100595 107.498198,74.8285119 105.190871,74.8285119" id="Fill-11"></path>
                                <path d="M115.798634,74.8285119 C114.42101,74.8285119 113.214475,74.1041071 112.698238,73.6552976 C112.52596,73.8279167 112.216455,74.3451786 112.147545,74.8285119 L111.492891,74.8285119 L111.492891,70.0666071 L112.182,70.0666071 C112.457644,72.3439881 114.041406,73.6898214 116.073683,73.6898214 C117.175663,73.6898214 118.071505,73.0689881 118.071505,72.033869 C118.071505,71.13625 117.27903,70.446369 115.86695,69.7904167 L113.904178,68.858869 C112.52596,68.2023214 111.492891,67.0642262 111.492891,65.5457738 C111.492891,63.8892262 113.042792,62.4743452 115.178436,62.4743452 C116.314871,62.4743452 117.27903,62.8880357 117.865366,63.3719643 C118.03705,63.233869 118.209327,62.8535119 118.312099,62.4398214 L118.966752,62.4398214 L118.966752,66.5118452 L118.243188,66.5118452 C118.002594,64.8898214 117.106752,63.5439881 115.281802,63.5439881 C114.317644,63.5439881 113.421802,64.096369 113.421802,64.958869 C113.421802,65.8564881 114.144772,66.338631 115.798634,67.09875 L117.692495,68.0302976 C119.345762,68.82375 119.999822,70.101131 119.999822,71.13625 C119.999822,73.3100595 118.10596,74.8285119 115.798634,74.8285119" id="Fill-13"></path>
                                <path d="M37.8068911,26.5529167 C37.8068911,35.3779167 42.9253069,43.0047024 50.3480792,46.6189881 L39.7334257,17.4791071 C38.4995644,20.2523214 37.8068911,23.3207738 37.8068911,26.5529167" id="Fill-15"></path>
                                <path d="M75.0800792,25.4280952 C75.0800792,22.6727381 74.0921584,20.7644048 73.2450297,19.2792857 C72.117505,17.442381 71.0594851,15.8870238 71.0594851,14.0507143 C71.0594851,12.0013095 72.6111683,10.0929762 74.7961188,10.0929762 C74.8947327,10.0929762 74.9885941,10.1054762 75.0848317,10.1114286 C71.1260198,6.47690476 65.8519604,4.25785714 60.0586931,4.25785714 C52.2848317,4.25785714 45.4460198,8.25428571 41.4664158,14.3072619 C41.9891881,14.3233333 42.4810693,14.3340476 42.8992871,14.3340476 C45.2262178,14.3340476 48.8291881,14.0507143 48.8291881,14.0507143 C50.0285941,13.979881 50.1699802,15.7453571 48.9717624,15.8870238 C48.9717624,15.8870238 47.7658218,16.0292857 46.4250297,16.100119 L54.528,40.2507143 L59.398099,25.6167857 L55.9311683,16.100119 C54.7329505,16.0292857 53.5971089,15.8870238 53.5971089,15.8870238 C52.398297,15.8167857 52.5390891,13.979881 53.738495,14.0507143 C53.738495,14.0507143 57.4127525,14.3340476 59.5988911,14.3340476 C61.9258218,14.3340476 65.5293861,14.0507143 65.5293861,14.0507143 C66.7293861,13.979881 66.8707723,15.7453571 65.6719604,15.8870238 C65.6719604,15.8870238 64.4642376,16.0292857 63.1252277,16.100119 L71.1664158,40.0667857 L73.3858218,32.6358333 C74.348198,29.5513095 75.0800792,27.3370238 75.0800792,25.4280952" id="Fill-17"></path>
                                <path d="M60.4492871,28.5033929 L53.7726535,47.9420833 C55.7663168,48.5295833 57.8746337,48.8504167 60.058396,48.8504167 C62.6496832,48.8504167 65.1346337,48.4016071 67.447901,47.5867262 C67.387901,47.4908929 67.3338416,47.3897024 67.2892871,47.2795833 L60.4492871,28.5033929 Z" id="Fill-19"></path>
                                <path d="M79.5836436,15.8566667 C79.6792871,16.5667857 79.7333465,17.3286905 79.7333465,18.1495238 C79.7333465,20.4108333 79.3115644,22.9542857 78.0414653,26.1352381 L71.2448317,45.825119 C77.8602772,41.9596429 82.3097822,34.7780952 82.3097822,26.5530952 C82.3097822,22.6769048 81.3218614,19.0316667 79.5836436,15.8566667" id="Fill-21"></path>
                                <path d="M60.0585743,51.3520833 C46.4124356,51.3520833 35.3094653,40.2276786 35.3094653,26.5526786 C35.3094653,12.8794643 46.4124356,1.75505952 60.0585743,1.75505952 C73.7047129,1.75505952 84.806495,12.8794643 84.806495,26.5526786 C84.806495,40.2276786 73.7047129,51.3520833 60.0585743,51.3520833 M60.0585743,0.563392857 C45.756,0.563392857 34.1201584,12.2229167 34.1201584,26.5526786 C34.1201584,40.8854167 45.756,52.54375 60.0585743,52.54375 C74.3599604,52.54375 85.9981782,40.8854167 85.9981782,26.5526786 C85.9981782,12.2229167 74.3599604,0.563392857 60.0585743,0.563392857" id="Fill-23"></path>
                            </g>
                        </g>
                    </g>
                </g>
            </g>
        </g>
    </g>
</svg>