<?xml version="1.0" encoding="UTF-8"?>
<svg width="61px" height="54px" viewBox="0 0 61 54" version="1.1" xmlns="http://www.w3.org/2000/svg" xmlns:xlink="http://www.w3.org/1999/xlink">
    <!-- Generator: Sketch 50 (54983) - http://www.bohemiancoding.com/sketch -->
    <title>party-employee</title>
    <desc>Created with Sketch.</desc>
    <defs>
        <path d="M22.5,36.9 C34.9264069,36.9 45,26.8264069 45,14.4 C45,1.97359313 34.9264069,0 22.5,0 C10.0735931,0 0,1.97359313 0,14.4 C0,26.8264069 10.0735931,36.9 22.5,36.9 Z" id="path-1"></path>
    </defs>
    <g id="Page-1" stroke="none" stroke-width="1" fill="none" fill-rule="evenodd">
        <g id="DL-inv-styles_01-Copy-7" transform="translate(-114.000000, -443.000000)">
            <g id="lineage/icon/base/parties" transform="translate(115.000000, 437.000000)">
                <g id="lineage/icon/parties" transform="translate(-6.000000, -4.000000)" fill-rule="evenodd" stroke-width="1">
                    <g id="Path-Copy-+-Path-Copy-2-+-Path-Mask" transform="translate(4.500000, 9.000000)">
                        <mask id="mask-2" fill="white">
                            <use xlink:href="#path-1"></use>
                        </mask>
                        <g id="Mask"></g>
                        <path d="M5.14373816,31.5 C3.45484417,28.6113737 1.74026478,25.877993 0,23.2998578 C0.258756571,23.1483143 0.554138613,23.0261323 0.892329646,22.9432569 C4.34225871,22.0969807 7.301787,20.6677353 7.32271584,20.6577903 C7.60477952,20.1941616 7.75223272,19.5259491 7.82691063,19.0490604 C6.94647237,17.8996971 6.53740867,16.5211241 6.35570828,15.3376635 C6.03178691,15.3116169 5.60322134,14.8522504 5.14373816,13.2155798 C4.51444599,10.9760498 5.18274191,10.6450218 5.74877191,10.6985356 C5.33257338,9.52217861 5.32401158,8.36476452 5.60274569,7.29401442 C5.89622511,6.03336127 6.57260717,5.02370217 7.33127763,4.24277916 C7.81073834,3.72895171 8.35393688,3.27953029 8.92995564,2.91203711 C9.39847627,2.58385054 9.91741638,2.30349492 10.4834464,2.11027686 C10.9262816,1.95920685 11.3971805,1.86212425 11.8961431,1.83844556 C13.4367911,1.70395064 14.6040496,2.09275463 15.4426302,2.59284844 C16.6940797,3.28852819 17.1692596,4.20868186 17.1692596,4.20868186 C17.1692596,4.20868186 20.3185744,4.43173506 18.9401248,11.0792889 C19.3639339,11.2270439 19.6626455,11.812381 19.171769,13.5593943 C18.5676866,15.7094188 18.0183046,15.8278122 17.687724,15.601444 C17.4936566,16.7006085 17.0969599,17.934268 16.3149823,18.9856016 C16.3929898,19.5141098 16.5656528,20.3220265 16.9247726,20.7993888 C16.9247726,20.7993888 19.7967803,22.0936657 23.2595521,22.9432569 C23.5977431,23.0261323 23.8931252,23.1483143 24.1523574,23.3003314 C22.4117755,25.8781508 16.0755691,28.6113737 5.14373816,31.5 Z" id="Path-Copy" fill="#696969" mask="url(#mask-2)"></path>
                        <path d="M38.5317239,30.6 C28.4801726,28.3113737 22.5842646,25.877993 20.8439999,23.2998578 C21.1027564,23.1483143 21.3981385,23.0261323 21.7363295,22.9432569 C25.1862586,22.0969807 28.1457869,20.6677353 28.1667157,20.6577903 C28.4487794,20.1941616 28.5962326,19.5259491 28.6709105,19.0490604 C27.7904722,17.8996971 27.3814085,16.5211241 27.1997081,15.3376635 C26.8757868,15.3116169 26.4472212,14.8522504 25.987738,13.2155798 C25.3584459,10.9760498 26.0267418,10.6450218 26.5927718,10.6985356 C26.1765732,9.52217861 26.1680114,8.36476452 26.4467455,7.29401442 C26.740225,6.03336127 27.416607,5.02370217 28.1752775,4.24277916 C28.6547382,3.72895171 29.1979367,3.27953029 29.7739555,2.91203711 C30.2424761,2.58385054 30.7614162,2.30349492 31.3274462,2.11027686 C31.7702815,1.95920685 32.2411804,1.86212425 32.740143,1.83844556 C34.280791,1.70395064 35.4480495,2.09275463 36.2866301,2.59284844 C37.5380796,3.28852819 38.0132594,4.20868186 38.0132594,4.20868186 C38.0132594,4.20868186 41.1625742,4.43173506 39.7841247,11.0792889 C40.2079337,11.2270439 40.5066453,11.812381 40.0157689,13.5593943 C39.4116865,15.7094188 38.8623044,15.8278122 38.5317239,15.601444 C38.3376564,16.7006085 37.9409598,17.934268 37.1589822,18.9856016 C37.2369897,19.5141098 37.4096526,20.3220265 37.7687725,20.7993888 C37.7687725,20.7993888 40.6407802,22.0936657 44.1035519,22.9432569 C44.441743,23.0261323 44.737125,23.1483143 44.9963573,23.3003314 C43.2557754,25.8781508 41.1008976,28.3113737 38.5317239,30.6 Z" id="Path-Copy-2" fill="#696969" mask="url(#mask-2)"></path>
                        <path d="M16.2482583,27.423672 C16.3488284,27.1892069 16.4358624,26.8917361 16.5055338,26.5583266 C15.7363274,25.432746 15.2381678,24.1210153 14.9609268,22.6924585 C14.3544409,22.2359839 13.8994255,21.2839708 13.4867085,19.8138802 C12.9421599,17.8759362 13.1313171,16.5107654 13.9213721,15.9278472 C13.6766482,14.7565647 13.7124676,13.5761727 14.0085088,12.4399709 C14.3640892,10.9125601 15.1553034,9.57653007 16.2586579,8.44110399 C16.8680398,7.78804285 17.5626073,7.21077158 18.2725987,6.75891006 C18.9215855,6.30431164 19.6071921,5.94632343 20.3275034,5.70044045 C20.9484403,5.48861236 21.5873936,5.36346938 22.2039595,5.33499684 C24.0207385,5.17639634 25.5975937,5.55882506 26.8953,6.33325905 C27.2105872,6.50852697 27.5033069,6.70206827 27.7740041,6.91095997 C28.3466808,7.35288333 28.7610163,7.80321654 29.038346,8.19474519 C29.4453327,8.32328255 29.8962499,8.57085577 30.3339932,8.98646636 C31.7514608,10.3322658 32.2660432,12.8085821 31.5723138,16.6376746 C32.1494137,17.3319324 32.1702099,18.5494946 31.7027627,20.213124 C31.2165385,21.9436727 30.5775916,23.0527421 29.8148396,23.3674747 C29.5309728,24.5047463 29.0941157,25.5552626 28.4777513,26.4814958 C28.5637054,26.9157982 28.679459,27.2955527 28.812377,27.5566159 C28.8251158,27.5620598 28.8382345,27.567656 28.8517304,27.5734023 C29.111595,27.6840489 29.411938,27.8077307 29.7484386,27.9411889 C30.7124298,28.3235137 31.7698392,28.7061749 32.8857469,29.0631318 C33.8358146,29.3670397 34.7862418,29.6383964 35.7251559,29.8687591 C35.9012819,29.9116417 36.0418585,29.9459753 36.1898516,29.982679 C36.4348841,30.0434494 36.6636609,30.1016903 36.8804668,30.1590283 C36.984395,30.1865139 37.0836883,30.2133053 37.1780533,30.2393725 C37.745987,30.3962574 38.0823191,30.5062971 38.3058518,30.6373796 L39.2250903,31.176433 L38.6287661,32.0595952 C35.5047128,36.6863499 28.8976652,39.7 22.4997238,39.7 C16.1012424,39.7 9.4944866,36.6865736 6.37115484,32.0594781 L5.7747053,31.1758611 L6.69463126,30.6370965 C6.91800609,30.5062746 7.25473601,30.3961817 7.82380793,30.2389685 C7.91751962,30.2130795 8.01608011,30.1864749 8.11919475,30.1591866 C8.33600562,30.1018097 8.56485497,30.0435031 8.80954316,29.9827668 C8.95860708,29.9457662 9.09803711,29.9116891 9.27406497,29.8688147 C10.3249173,29.611038 11.3969981,29.2904025 12.4717516,28.9211013 C13.5134723,28.5631507 14.501289,28.179406 15.4029861,27.795673 C15.7186411,27.6613406 16.0008215,27.5366756 16.2458229,27.4247843 C16.2466361,27.4244129 16.2474479,27.4240421 16.2482583,27.423672 Z" id="Path" stroke="#FFFFFF" stroke-width="2" fill="#9B9B9B" mask="url(#mask-2)"></path>
                    </g>
                </g>
                <g id="lineage/icon/token/context-oval" transform="translate(26.000000, 26.000000)" fill="#FFFFFF" fill-rule="evenodd">
                    <circle id="Oval" stroke="#FFFFFF" stroke-width="3" cx="17" cy="17" r="15.5"></circle>
                    <circle id="Oval" stroke="#979797" stroke-width="1" cx="17" cy="17" r="13.5"></circle>
                </g>
                <g id="lineage/icon/token/briefcase" transform="translate(26.000000, 26.000000)" fill="#757575" fill-rule="nonzero">
                    <path d="M22.6,12.7368421 L19.8,12.7368421 L19.8,11.3684211 C19.8,10.9921053 19.646,10.65 19.387,10.4036842 C19.135,10.1505263 18.785,10 18.4,10 L15.6,10 C14.83,10 14.2,10.6157895 14.2,11.3684211 L14.2,12.7368421 L11.4,12.7368421 C10.63,12.7368421 10,13.3526316 10,14.1052632 L10,21.6315789 C10,22.3842105 10.63,23 11.4,23 L22.6,23 C23.37,23 24,22.3842105 24,21.6315789 L24,14.1052632 C24,13.3526316 23.37,12.7368421 22.6,12.7368421 Z M15.6,11.3684211 L18.4,11.3684211 L18.4,12.7368421 L15.6,12.7368421 L15.6,11.3684211 Z M10,15.4736842 L24,15.4736842 L24,16.8421053 L10,16.8421053 L10,15.4736842 Z" id="Shape"></path>
                </g>
            </g>
        </g>
    </g>
</svg>