<?xml version="1.0" encoding="UTF-8"?>
<svg width="48px" height="46px" viewBox="0 0 48 46" version="1.1" xmlns="http://www.w3.org/2000/svg" xmlns:xlink="http://www.w3.org/1999/xlink">
    <!-- Generator: Sketch 50.2 (55047) - http://www.bohemiancoding.com/sketch -->
    <title>lineage/icon/attribute</title>
    <desc>Created with Sketch.</desc>
    <defs></defs>
    <g id="Page-1" stroke="none" stroke-width="1" fill="none" fill-rule="evenodd">
        <g id="DL-inv-styles_01-Copy-7" transform="translate(-463.000000, -706.000000)">
            <g id="lineage/icon/attribute" transform="translate(456.000000, 699.000000)">
                <path d="M13,52.5 C16.0375661,52.5 18.5,50.0375661 18.5,47 C18.5,43.9624339 16.0375661,41.5 13,41.5 C9.96243387,41.5 7.5,43.9624339 7.5,47 C7.5,50.0375661 9.96243387,52.5 13,52.5 Z" id="attribute-icon-path" stroke="#979797" stroke-width="1" fill="#EEEEEE" fill-rule="evenodd"></path>
                <path d="M13,35.5 C16.0375661,35.5 18.5,33.0375661 18.5,30 C18.5,26.9624339 16.0375661,24.5 13,24.5 C9.96243387,24.5 7.5,26.9624339 7.5,30 C7.5,33.0375661 9.96243387,35.5 13,35.5 Z" id="attribute-icon-path" stroke="#979797" stroke-width="1" fill="#EEEEEE" fill-rule="evenodd"></path>
                <path d="M13,18.5 C16.0375661,18.5 18.5,16.0375661 18.5,13 C18.5,9.96243387 16.0375661,7.5 13,7.5 C9.96243387,7.5 7.5,9.96243387 7.5,13 C7.5,16.0375661 9.96243387,18.5 13,18.5 Z" id="attribute-icon-path" stroke="#979797" stroke-width="1" fill="#EEEEEE" fill-rule="evenodd"></path>
                <path d="M29,26 L30,26 C31.1045695,26 32,26.8954305 32,28 L32,29 L38,29 C38.5522847,29 39,29.4477153 39,30 C39,30.5522847 38.5522847,31 38,31 L32,31 L32,32 C32,33.1045695 31.1045695,34 30,34 L29,34 L29,44 C29,46.209139 27.209139,48 25,48 L22,48 C21.4477153,48 21,47.5522847 21,47 C21,46.4477153 21.4477153,46 22,46 L25,46 C26.1045695,46 27,45.1045695 27,44 L27,34 L26,34 C24.8954305,34 24,33.1045695 24,32 L24,31 L22,31 C21.4477153,31 21,30.5522847 21,30 C21,29.4477153 21.4477153,29 22,29 L24,29 L24,28 C24,26.8954305 24.8954305,26 26,26 L27,26 L27,16 C27,14.8954305 26.1045695,14 25,14 L22,14 C21.4477153,14 21,13.5522847 21,13 C21,12.4477153 21.4477153,12 22,12 L25,12 C27.209139,12 29,13.790861 29,16 L29,26 Z" id="Combined-Shape" fill="#696969" fill-rule="nonzero"></path>
                <path d="M48,36 C51.3137085,36 54,33.3137085 54,30 C54,26.6862915 51.3137085,24 48,24 C44.6862915,24 42,26.6862915 42,30 C42,33.3137085 44.6862915,36 48,36 Z" id="attribute-icon-path" stroke="#6CC04A" stroke-width="2" fill="#EEEEEE" fill-rule="evenodd"></path>
            </g>
        </g>
    </g>
</svg>