<?xml version="1.0" encoding="UTF-8"?>
<svg width="57px" height="57px" viewBox="0 0 57 57" version="1.1" xmlns="http://www.w3.org/2000/svg" xmlns:xlink="http://www.w3.org/1999/xlink">
    <!-- Generator: Sketch 50 (54983) - http://www.bohemiancoding.com/sketch -->
    <title>vendor-technology</title>
    <desc>Created with Sketch.</desc>
    <defs></defs>
    <g id="Page-1" stroke="none" stroke-width="1" fill="none" fill-rule="evenodd">
        <g id="DL-inv-styles_01-Copy-7" transform="translate(-211.000000, -1139.000000)">
            <g id="lineage/icon/base/vendor" transform="translate(208.000000, 1136.000000)">
                <g id="Group" stroke-width="1" transform="translate(4.000000, 4.000000)">
                    <polygon id="Path-12" fill="#D8D8D8" points="0 51 16 51 16 0 0 9"></polygon>
                    <polygon id="Path-12" fill="#B2B2B2" transform="translate(22.500000, 25.500000) scale(-1, 1) translate(-22.500000, -25.500000) " points="16 51 16 9 29 0 29 51"></polygon>
                    <path d="M0,17.0392006 L0,14.0392006 L16,5 L16,9.03920062 L0,17.0392006 Z M0,24.0392006 L0,21.0392006 L16,14 L16,18.0392006 L0,24.0392006 Z M0,31.0392006 L0,28.0392006 L16,23 L16,27.0392006 L0,31.0392006 Z M0,38.0392006 L0,35.0392006 L16,32 L16,36.0392006 L0,38.0392006 Z M0,45.0392006 L0,42.0392006 L16,41 L16,45.0392006 L0,45.0392006 Z" id="Combined-Shape" fill="#FFFFFF"></path>
                    <path d="M16,17.0392006 L16,14.0392006 L29,5 L29,9.03920062 L16,17.0392006 Z M16,24.0392006 L16,21.0392006 L29,14 L29,18.0392006 L16,24.0392006 Z M16,31.0392006 L16,28.0392006 L29,23 L29,27.0392006 L16,31.0392006 Z M16,38.0392006 L16,35.0392006 L29,32 L29,36.0392006 L16,38.0392006 Z M16,45.0392006 L16,42.0392006 L29,41 L29,45.0392006 L16,45.0392006 Z" id="Combined-Shape" fill="#FFFFFF" transform="translate(22.500000, 25.019600) scale(-1, 1) translate(-22.500000, -25.019600) "></path>
                    <path d="M-0.5,51.5 L-0.5,10.169695 C-0.5,9.26651169 -0.0128455523,8.43355188 0.774346901,7.99075613 L14.6645083,0.177540333 C15.4983017,-0.291468464 16.5266356,-0.243536474 17.3131864,0.300998697 L28.4230249,7.99242541 C29.0975204,8.45938382 29.5,9.22754359 29.5,10.0479059 L29.5,51.5 L-0.5,51.5 Z" id="Path-13" stroke="#979797"></path>
                </g>
                <g id="lineage/icon/token/context-oval" transform="translate(26.000000, 26.000000)" fill="#FFFFFF">
                    <circle id="Oval" stroke="#FFFFFF" stroke-width="3" cx="17" cy="17" r="15.5"></circle>
                    <circle id="Oval" stroke="#979797" stroke-width="1" cx="17" cy="17" r="13.5"></circle>
                </g>
                <g id="lineage/icon/token/technology" transform="translate(26.000000, 26.000000)" stroke="#696969" stroke-width="1">
                    <g id="Group" transform="translate(9.000000, 8.000000)">
                        <polyline id="Path-14" points="2.66666667 13.3333333 8 8 13.3333333 13.3333333"></polyline>
                        <path d="M8,8 L8,3.55555556" id="Path-15"></path>
                        <circle id="Oval-6" fill="#D8D8D8" cx="8" cy="2.66666667" r="2.16666667"></circle>
                        <circle id="Oval-6" fill="#D8D8D8" cx="2.66666667" cy="13.3333333" r="2.16666667"></circle>
                        <circle id="Oval-6" fill="#D8D8D8" cx="13.3333333" cy="13.3333333" r="2.16666667"></circle>
                    </g>
                </g>
            </g>
        </g>
    </g>
</svg>