<?xml version="1.0" encoding="UTF-8"?>
<svg width="30px" height="30px" viewBox="0 0 30 30" version="1.1" xmlns="http://www.w3.org/2000/svg" xmlns:xlink="http://www.w3.org/1999/xlink">
    <!-- Generator: Sketch 52.3 (67297) - http://www.bohemiancoding.com/sketch -->
    <title>icon/grey/meta copy</title>
    <desc>Created with Sketch.</desc>
    <g id="icon/grey/meta-copy" stroke="none" stroke-width="1" fill="none" fill-rule="evenodd">
        <path d="M23.34375,7.59375 C23.7812522,8.03125219 24,8.56249688 24,9.1875 L24,24.75 C24,25.3750031 23.7812522,25.9062478 23.34375,26.34375 C22.9062478,26.7812522 22.3750031,27 21.75,27 L8.25,27 C7.62499687,27 7.09375219,26.7812522 6.65625,26.34375 C6.21874781,25.9062478 6,25.3750031 6,24.75 L6,5.25 C6,4.62499688 6.21874781,4.09375219 6.65625,3.65625 C7.09375219,3.21874781 7.62499687,3 8.25,3 L17.8125,3 C18.4375031,3 18.9687478,3.21874781 19.40625,3.65625 L23.34375,7.59375 Z M21.5625,9 L18,5.4375 L18,9 L21.5625,9 Z M8.25,24.75 L8.25,5.25 L15.75,5.25 L15.75,10.125 C15.75,10.4375016 15.8593739,10.7031239 16.078125,10.921875 C16.2968761,11.1406261 16.5624984,11.25 16.875,11.25 L21.75,11.25 L21.75,24.75 L8.25,24.75 Z M10.5555556,18 C11.4146652,18 12.1111111,17.3284271 12.1111111,16.5 C12.1111111,15.6715729 11.4146652,15 10.5555556,15 C9.69644594,15 9,15.6715729 9,16.5 C9,17.3284271 9.69644594,18 10.5555556,18 Z M15,18 C15.8591096,18 16.5555556,17.3284271 16.5555556,16.5 C16.5555556,15.6715729 15.8591096,15 15,15 C14.1408904,15 13.4444444,15.6715729 13.4444444,16.5 C13.4444444,17.3284271 14.1408904,18 15,18 Z M19.4444444,18 C20.3035541,18 21,17.3284271 21,16.5 C21,15.6715729 20.3035541,15 19.4444444,15 C18.5853348,15 17.8888889,15.6715729 17.8888889,16.5 C17.8888889,17.3284271 18.5853348,18 19.4444444,18 Z" id="" fill="#696969"></path>
    </g>
</svg>