<?xml version="1.0" encoding="UTF-8"?>
<svg width="129px" height="130px" viewBox="0 0 129 130" version="1.1" xmlns="http://www.w3.org/2000/svg" xmlns:xlink="http://www.w3.org/1999/xlink">
    <!-- Generator: Sketch 51.1 (57501) - http://www.bohemiancoding.com/sketch -->
    <title>page element/empty_state/search</title>
    <desc>Created with Sketch.</desc>
    <defs>
        <path d="M70.6,2.04636308e-12 L102.8,1.36424205e-12 C105.119596,1.316431e-12 107,1.88040405 107,4.2 L107,108.8 C107,111.119596 105.119596,113 102.8,113 L20.2,113 C17.8804041,113 16,111.119596 16,108.8 L16,13.1534392 L70.6,2.04636308e-12 Z" id="path-1"></path>
        <path d="M0,13.1534392 L54.6,0 L24.1098843,22.9885793 C21.7084845,24.7991585 18.4346939,24.9264008 15.9000073,23.3076721 L0,13.1534392 Z" id="path-3"></path>
        <filter x="-12.8%" y="-20.5%" width="125.6%" height="157.3%" filterUnits="objectBoundingBox" id="filter-4">
            <feOffset dx="0" dy="2" in="SourceAlpha" result="shadowOffsetOuter1"></feOffset>
            <feGaussianBlur stdDeviation="2" in="shadowOffsetOuter1" result="shadowBlurOuter1"></feGaussianBlur>
            <feColorMatrix values="0 0 0 0 0   0 0 0 0 0   0 0 0 0 0  0 0 0 0.3 0" type="matrix" in="shadowBlurOuter1"></feColorMatrix>
        </filter>
        <circle id="path-5" cx="32.7928932" cy="33.0355339" r="32.5"></circle>
    </defs>
    <g id="page-element/empty_state/search" stroke="none" stroke-width="1" fill="none" fill-rule="evenodd">
        <g id="empty_state_icon" transform="translate(-15.000000, 2.000000)">
            <g>
                <rect id="Rectangle-2" x="0" y="0" width="124" height="130"></rect>
                <mask id="mask-2" fill="white">
                    <use xlink:href="#path-1"></use>
                </mask>
                <g id="Mask"></g>
                <g id="notepad" mask="url(#mask-2)">
                    <g transform="translate(16.000000, 0.000000)">
                        <path d="M4.03164557,1.79365079 C2.75929336,1.79365079 1.7278481,2.86437721 1.7278481,4.18518519 L1.7278481,108.814815 C1.7278481,110.135623 2.75929336,111.206349 4.03164557,111.206349 L86.9683544,111.206349 C88.2407066,111.206349 89.2721519,110.135623 89.2721519,108.814815 L89.2721519,4.18518519 C89.2721519,2.86437721 88.2407066,1.79365079 86.9683544,1.79365079 L4.03164557,1.79365079 Z M4.03164557,0 L86.9683544,0 C89.1949708,-4.24599855e-16 91,1.87377123 91,4.18518519 L91,108.814815 C91,111.126229 89.1949708,113 86.9683544,113 L4.03164557,113 C1.8050292,113 2.7268186e-16,111.126229 0,108.814815 L0,4.18518519 C-2.7268186e-16,1.87377123 1.8050292,4.24599855e-16 4.03164557,0 Z" id="Rectangle" stroke="none" fill="#E7E7E7" fill-rule="nonzero"></path>
                        <path d="M4.78947368,6.2 L4.78947368,106.8 C4.78947368,107.462742 5.32673198,108 5.98947368,108 L85.0105263,108 C85.673268,108 86.2105263,107.462742 86.2105263,106.8 L86.2105263,6.2 C86.2105263,5.5372583 85.673268,5 85.0105263,5 L5.98947368,5 C5.32673198,5 4.78947368,5.5372583 4.78947368,6.2 Z" id="Rectangle" stroke="none" fill="#F9F9F9" fill-rule="nonzero"></path>
                        <g id="Rectangle-3" stroke="none" fill="none" fill-opacity="1">
                            <use fill="black" filter="url(#filter-4)" xlink:href="#path-3"></use>
                        </g>
                        <path d="M-2.2666754,12.773746 L58.6012533,-1.8896715 L24.6517077,23.7072081 C21.9501328,25.7441098 18.2671185,25.8872573 15.4155961,24.0661875 L-2.2666754,12.773746 Z" id="Rectangle-3" stroke="#FFFFFF" stroke-width="1.8" fill="#D7D7D7" fill-rule="evenodd"></path>
                    </g>
                </g>
            </g>
        </g>
        <g id="Group-2" transform="translate(88.578950, 89.286057) rotate(-45.000000) translate(-88.578950, -89.286057) translate(55.578950, 35.786057)">
            <polygon id="Rectangle-5" fill="#C7C7C7" points="29 58.4497475 38 58 38 77 29 76.8345238"></polygon>
            <path d="M27.880719,69.1746922 L38.2696078,69.1746922 C39.8650971,69.1746922 41.1584967,70.4680918 41.1584967,72.0635811 L41.1584967,98.1795941 C41.1584967,102.643896 37.5394651,106.262927 33.0751634,106.262927 L33.0751634,106.262927 C28.6108617,106.262927 24.9918301,102.643896 24.9918301,98.1795941 L24.9918301,72.0635811 C24.9918301,70.4680918 26.2852297,69.1746922 27.880719,69.1746922 Z" id="Combined-Shape" fill="#D7D7D7"></path>
            <g id="Oval" stroke-linejoin="square">
                <circle stroke="#E7E7E7" stroke-width="9" fill-opacity="0.5" fill="#FFFFFF" fill-rule="evenodd" cx="32.7928932" cy="33.0355339" r="28"></circle>
                <circle stroke="#FFFFFF" stroke-width="4" cx="32.7928932" cy="33.0355339" r="30.5"></circle>
                <circle stroke="#E7E7E7" stroke-width="2" cx="32.7928932" cy="33.0355339" r="31.5"></circle>
            </g>
        </g>
        <path d="M75.8956739,56.9946235 C75.4876314,56.9781911 74.8735915,57 74.5,57 C64.2827321,57 56,65.2827321 56,75.5 C56,75.6793934 55.9949313,75.7819097 55.9985318,75.9453462 C55.9995064,75.9634405 56,75.9816626 56,76 C56,76.5522847 55.5522847,77 55,77 C54.4477153,77 54,76.5522847 54,76 L54.0000493,75.545468 C54,64.1781626 63.1781626,55 74.5,55 C74.9549513,55 75.552428,54.9708162 76,55 C76.5522847,55 77,55.4477153 77,56 C77,56.5522847 76.5522847,57 76,57 C75.9647694,57 75.9299644,56.9981781 75.8956739,56.9946235 Z" id="Combined-Shape" fill="#D8D8D8"></path>
    </g>
</svg>