<?xml version="1.0" encoding="UTF-8"?>
<svg width="162px" height="162px" viewBox="0 0 162 162" version="1.1" xmlns="http://www.w3.org/2000/svg" xmlns:xlink="http://www.w3.org/1999/xlink">
    <!-- Generator: Sketch 52.5 (67469) - http://www.bohemiancoding.com/sketch -->
    <title>upgrade_icon</title>
    <desc>Created with Sketch.</desc>
    <defs>
        <linearGradient x1="50%" y1="100%" x2="50%" y2="3.061617e-15%" id="linearGradient-1">
            <stop stop-color="#5CA340" offset="0%"></stop>
            <stop stop-color="#6CC04A" offset="100%"></stop>
        </linearGradient>
        <circle id="path-2" cx="75" cy="75" r="75"></circle>
    </defs>
    <g id="Page-1" stroke="none" stroke-width="1" fill="none" fill-rule="evenodd">
        <g id="02_Modal_01" transform="translate(-396.000000, -397.000000)">
            <g id="Stacked-Group" transform="translate(270.000000, 325.000000)">
                <g transform="translate(0.000000, 78.000000)" id="circle">
                    <g>
                        <g>
                            <g transform="translate(132.000000, 0.000000)">
                                <g id="Group-3">
                                    <g id="Oval">
                                        <use fill="url(#linearGradient-1)" fill-rule="evenodd" xlink:href="#path-2"></use>
                                        <circle stroke="#6CC04A" stroke-width="6" cx="75" cy="75" r="78"></circle>
                                        <use stroke="#FFFFFF" stroke-width="4" xlink:href="#path-2"></use>
                                    </g>
                                    <g id="upgrad-icon" transform="translate(33.000000, 33.000000)" fill="#FFFFFF" fill-rule="nonzero">
                                        <path d="M38.8629808,77.6857238 L38.8629808,23.584929 L21.3429953,40.8886183 C20.0503223,42.1653324 17.9544854,42.1653324 16.6618124,40.8886183 C15.3691395,39.6119043 15.3691395,37.5419419 16.6618124,36.2652278 L39.8324855,13.3806124 C41.1251584,12.1038984 43.2209954,12.1038984 44.5136684,13.3806124 L67.6843414,36.2652278 C68.9770144,37.5419419 68.9770144,39.6119043 67.6843414,40.8886183 C66.3916685,42.1653324 64.2958315,42.1653324 63.0031586,40.8886183 L45.4831731,23.584929 L45.4831731,77.6260505 C63.6361065,75.8028617 77.8076923,60.4794834 77.8076923,41.8461538 C77.8076923,21.9851446 61.7071631,5.88461538 41.8461538,5.88461538 C21.9851446,5.88461538 5.88461538,21.9851446 5.88461538,41.8461538 C5.88461538,60.7026198 20.3976465,76.1693857 38.8629808,77.6857238 Z M42.1730769,84.3461538 C18.8815297,84.3461538 0,65.4646242 0,42.1730769 C0,18.8815297 18.8815297,0 42.1730769,0 C65.4646242,0 84.3461538,18.8815297 84.3461538,42.1730769 C84.3461538,65.4646242 65.4646242,84.3461538 42.1730769,84.3461538 Z" id="Combined-Shape"></path>
                                    </g>
                                </g>
                            </g>
                        </g>
                    </g>
                </g>
            </g>
        </g>
    </g>
</svg>