<?xml version="1.0" encoding="UTF-8"?>
<svg width="30px" height="30px" viewBox="0 0 30 30" version="1.1" xmlns="http://www.w3.org/2000/svg" xmlns:xlink="http://www.w3.org/1999/xlink">
    <!-- Generator: Sketch 51.3 (57544) - http://www.bohemiancoding.com/sketch -->
    <title>applauncher/icon/notice</title>
    <desc>Created with Sketch.</desc>
    <defs></defs>
    <g id="applauncher/icon/notice" stroke="none" stroke-width="1" fill="none" fill-rule="evenodd">
        <g id="applauncher/icon/circle" fill="#E9E9E9">
            <circle id="Oval-3" cx="15" cy="15" r="15"></circle>
        </g>
        <rect id="Rectangle" stroke="#2C3643" stroke-width="0.5" fill="#FFFFFF" x="8.25" y="7.25" width="13.5" height="16.5" rx="2"></rect>
        <path d="M13.0000814,7 C13.0000814,5.8954305 13.8955119,5 15.0000814,5 C16.1046509,5 17.0000814,5.8954305 17.0000814,7 L18,7 C18.5522847,7 19,7.44771525 19,8 L19,9 L11,9 L11,8 C11,7.44771525 11.4477153,7 12,7 L13.0000814,7 Z M15.0013248,8 C15.5529228,8 16.0000814,7.55228475 16.0000814,7 C16.0000814,6.44771525 15.5529228,6 15.0013248,6 C14.4497267,6 14.0025682,6.44771525 14.0025682,7 C14.0025682,7.55228475 14.4497267,8 15.0013248,8 Z" id="Combined-Shape" fill="#BDBDBD"></path>
        <path d="M10.5,11.5 L10.5,13.5 L12.5,13.5 L12.5,11.5 L10.5,11.5 Z M10.5,15.5 L10.5,17.5 L12.5,17.5 L12.5,15.5 L10.5,15.5 Z M10.5,19.5 L10.5,21.5 L12.5,21.5 L12.5,19.5 L10.5,19.5 Z" id="Combined-Shape" stroke="#6CC04A"></path>
        <g id="002-checked" transform="translate(16.000000, 18.000000)">
            <path d="M3.99999063,-0.5 C6.48530356,-0.5 8.5,1.51471601 8.5,3.99999063 C8.5,6.4853113 6.48537,8.5 3.99999063,8.5 C1.51479101,8.5 -0.5,6.48522856 -0.5,3.99999063 C-0.5,1.51476818 1.51479427,-0.5 3.99999063,-0.5 Z" id="Fill-1" stroke="#E9E9E9" fill="#6CC04A"></path>
            <polygon id="Path" fill="#FFFFFF" points="3.2662287 6.05470777 1.50496757 4.29352165 2.09199212 3.70647835 3.2662287 4.88063994 5.90798913 2.2388045 6.49503243 2.82582904"></polygon>
        </g>
    </g>
</svg>
