<?xml version="1.0" encoding="UTF-8"?>
<svg width="30px" height="30px" viewBox="0 0 30 30" version="1.1" xmlns="http://www.w3.org/2000/svg" xmlns:xlink="http://www.w3.org/1999/xlink">
    <!-- Generator: Sketch 52.1 (67048) - http://www.bohemiancoding.com/sketch -->
    <title>applauncher/icon/users</title>
    <desc>Created with Sketch.</desc>
    <defs>
        <circle id="path-1" cx="9" cy="9" r="9"></circle>
    </defs>
    <g id="applauncher/icon/users" stroke="none" stroke-width="1" fill="none" fill-rule="evenodd">
        <g id="applauncher/icon/circle" fill="#E9E9E9">
            <circle id="Oval-3" cx="15" cy="15" r="15"></circle>
        </g>
        <g id="Combined-Shape-+-Combined-Shape-+-Combined-Shape-Mask" transform="translate(6.000000, 6.000000)">
            <mask id="mask-2" fill="white">
                <use xlink:href="#path-1"></use>
            </mask>
            <circle stroke="#323E4C" stroke-width="0.818181818" cx="9" cy="9" r="9.40909091"></circle>
            <path d="M3.19346443,8.55842917 C1.27198398,8.99611118 0.877147076,9.62978886 0.824907497,11.9687781 C0.822010457,12.0983803 0.819768569,14.2543371 0.818181834,18.4366484 L0.818166303,18.4366484 C0.81791502,19.0989815 1.35463837,19.6361123 2.01697146,19.6363636 C2.01712313,19.6363636 2.01727479,19.6363636 2.01742645,19.6363636 L9.43714241,19.6363402 C10.099454,19.6363402 10.6363636,19.0994305 10.6363636,18.4371189 C10.6363636,18.4369885 10.6363636,18.4368581 10.6363636,18.4367276 C10.6350065,14.2779497 10.6334345,12.1508441 10.6316474,12.0554111 C10.5858865,9.63633238 10.2013474,9.0000442 8.26127186,8.55841962 C7.53526406,9.10028758 6.65424816,9.39940357 5.72740748,9.39940357 C4.80049531,9.39940357 3.91946415,9.10029477 3.19346443,8.55842917 Z M5.72740748,8.35676414 C7.08079122,8.35676414 8.1937808,7.22535267 8.1937808,5.8147457 C8.1937808,4.02902153 7.60436123,3.27272727 5.72740748,3.27272727 C3.85033089,3.27272727 3.26103415,4.02891075 3.26103415,5.8147457 C3.26103415,7.22540579 4.37393055,8.35676414 5.72740748,8.35676414 Z" id="Shape" fill="#6CC04A" mask="url(#mask-2)"></path>
            <path d="M9.66601987,12.3388768 L9.81307702,12.3053351 L9.93389685,12.3956314 C10.6097745,12.9007576 11.4238532,13.1728975 12.2728137,13.1728975 C13.1217019,13.1728975 13.9357653,12.9007512 14.6116526,12.3956212 L14.7324494,12.3053427 L14.879483,12.3388568 C16.956679,12.8123228 17.4548716,13.5607689 17.5038414,16.1529164 C17.5054633,16.2396465 17.5068509,16.9932228 17.5080913,18.4358072 C17.5080918,18.4364631 17.5080918,18.4364631 17.5080919,18.4371189 C17.5080919,19.2796458 16.825089,19.9626487 15.9825616,19.9626487 L8.56287866,19.9626359 C8.56207907,19.9626357 8.56207907,19.9626357 8.56127949,19.962635 C7.71874597,19.9617518 7.03645758,19.2780247 7.03736255,18.4355027 C7.03890267,16.966305 7.04092789,16.1824518 7.04355022,16.0649831 C7.0995512,13.5542478 7.6087258,12.8081176 9.66601987,12.3388768 Z M12.2728137,12.7812952 C10.7316999,12.7812952 9.47988014,11.4948552 9.47988014,9.90932967 C9.47988014,7.88599365 10.2650628,7.03736412 12.2728137,7.03736412 C14.280449,7.03736412 15.0657472,7.88611296 15.0657472,9.90932967 C15.0657472,11.4947882 13.8138477,12.7812952 12.2728137,12.7812952 Z" id="Shape" stroke="#E9E9E9" stroke-width="0.652544488" fill="#676E77" mask="url(#mask-2)"></path>
        </g>
    </g>
</svg>